code,products/kind,name,account_category,list_price,products/cost_price,type,default_uom,salable,sale_uom,purchasable,purchase_uom
00001,medicament,ACETAMINOFEN 250mg,MEDICAMENTOS,2300,1900,goods,Unidad,True,Unidad,True,Unidad
00002,medicament,ALBENDAZOL 500mg,MEDICAMENTOS,3800,3000,goods,Unidad,True,Unidad,True,Unidad
00003,procedure,ALTRASONOGRAFIA,IMAGENES,45000,45000,service,Unidad,True,Unidad,True,Unidad
00004,procedure,TOMOGRAFIA,IMAGENES,37000,37000,service,Unidad,True,Unidad,True,Unidad
00005,procedure,RADIOGRAFIA,IMAGENES,64000,64000,service,Unidad,True,Unidad,True,Unidad
00006,procedure,PERFIL LIPIDICO,LABORATORIO,12000,12000,goods,Unidad,True,Unidad,True,Unidad
00007,procedure,HEMOGRAMA,LABORATORIO,12000,12000,goods,Unidad,True,Unidad,True,Unidad
00008,procedure,URIANALISIS,LABORATORIO,12000,12000,goods,Unidad,True,Unidad,True,Unidad
00009,medicament,PENICILINA 200mg,MEDICAMENTOS,9200,9200,goods,Unidad,True,Unidad,True,Unidad
